{
    "ImageSelect": {
        "": "",
        "/icons/area.svg": "Area",
        "/icons/bean.svg": "Bean",
        "/icons/chest.svg": "Chest",
        "/icons/cow.svg": "Cow",
        "/icons/dungeon_boss.svg": "Dungeon Boss",
        "/icons/dungeon.svg": "Dungeon",
        "/icons/entrance.svg": "Entrance",
        "/icons/fairy_fountain.svg": "Fairy Fountain",
        "/icons/gossipstone.svg": "Gossipstone",
        "/icons/grotto.svg": "Grotto",
        "/icons/interior.svg": "Interior",
        "/icons/location.svg": "Location",
        "/icons/scrub.svg": "Scrub",
        "/icons/skulltula.svg": "Skulltula"
    },
    "SearchSelect": {
        "": "",
        "test": "Test",
        "foobar": "Foobar",
        "barfoo": "Barfoo"
    },
    "SimpleSelect": {
        "": "Select entry...",
        "test": "Test",
        "foobar": "Foobar",
        "barfoo": "Barfoo"
    },
    "ListSelect": {
        "test": "Test",
        "foobar": "Foobar",
        "barfoo": "Barfoo"
    },
    "OptionAmountListInput": [
        "test",
        "foobar",
        "barfoo",
        "barfoo1",
        "barfoo2",
        "barfoo3",
        "barfoo4",
        "barfoo5",
        "barfoo6",
        "barfoo7",
        "barfoo8",
        "barfoo9",
        "barfoo0"
    ]
}