{
    "type": "Fieldset",
    "label": "bool or logic",
    "children": [
        {
            "type": "BoolOrLogicInput",
            "label": "bool or logic default",
            "name": "boolorlogic.default",
            "id": "logicTest"
        },
        {
            "type": "BoolOrLogicInput",
            "label": "bool or logic resettable",
            "name": "boolorlogic.resettable",
            "resettable": true
        },
        {
            "type": "BoolOrLogicInput",
            "label": "bool or logic disabled",
            "name": "boolorlogic.disabled",
            "disabled": true
        }
    ]
}