{
    "type": "Row",
    "children": [
        {
            "type": "LinkButton",
            "name": "button.link_disabled",
            "text": "cookie",
            "icon": "🍪",
            "href": "/#page=Input",
            "disabled": true
        },
        {
            "type": "LinkButton",
            "name": "button.link",
            "text": "hotdog",
            "icon": "🌭",
            "href": "/#page=Input"
        },
        {
            "type": "ActionButton",
            "name": "button.action_disabled",
            "text": "soup",
            "icon": "🍲",
            "action": "soup",
            "disabled": true,
            "tooltip": "invisible if search-select default is empty",
            "visible": {
                "type": "not",
                "content": {
                    "type": "state",
                    "content": "search-select.default",
                    "value": ""
                }
            }
        },
        {
            "type": "ActionButton",
            "name": "button.action",
            "text": "cheese",
            "icon": "🧀",
            "action": "cheese"
        }
    ]
}