{
    "type": "Fieldset",
    "label": "color",
    "children": [
        {
            "type": "ColorInput",
            "label": "color default",
            "name": "color.default",
            "placeholder": "Choose color..."
        },
        {
            "type": "ColorInput",
            "label": "color resettable",
            "name": "color.resettable",
            "placeholder": "Choose color...",
            "resettable": true
        },
        {
            "type": "ColorInput",
            "label": "color required",
            "name": "color.required",
            "placeholder": "Choose color...",
            "required": true
        },
        {
            "type": "ColorInput",
            "label": "color readonly",
            "name": "color.readonly",
            "placeholder": "Choose color...",
            "readonly": true
        },
        {
            "type": "ColorInput",
            "label": "color disabled",
            "name": "color.disabled",
            "placeholder": "Choose color...",
            "disabled": true
        }
    ]
}