{
    "type": "Fieldset",
    "label": "number",
    "children": [
        {
            "type": "NumberInput",
            "label": "number default",
            "name": "number.default",
            "placeholder": "Enter number..."
        },
        {
            "type": "NumberInput",
            "label": "number resettable",
            "name": "number.resettable",
            "placeholder": "Enter number...",
            "resettable": true
        },
        {
            "type": "NumberInput",
            "label": "number required",
            "name": "number.required",
            "placeholder": "Enter number...",
            "required": true
        },
        {
            "type": "NumberInput",
            "label": "number readonly",
            "name": "number.readonly",
            "placeholder": "Enter number...",
            "readonly": true
        },
        {
            "type": "NumberInput",
            "label": "number disabled",
            "name": "number.disabled",
            "placeholder": "Enter number...",
            "disabled": true
        }
    ]
}