{
    "type": "Fieldset",
    "label": "simple-select",
    "children": [
        {
            "type": "SimpleSelect",
            "label": "simple-select default",
            "name": "simple-select.default",
            "optiongroup": "SimpleSelect",
            "placeholder": "Select entry...",
            "options": {
                "": "",
                "nana": "Nana"
            },
            "sorted": true
        },
        {
            "type": "SimpleSelect",
            "label": "simple-select default (duplicate)",
            "name": "simple-select.default",
            "optiongroup": "SimpleSelect",
            "placeholder": "Select entry...",
            "options": {
                "": "",
                "nana": "Nana"
            },
            "sorted": true
        },
        {
            "type": "SimpleSelect",
            "label": "simple-select resettable",
            "name": "simple-select.resettable",
            "optiongroup": "SimpleSelect",
            "placeholder": "Select entry...",
            "options": {
                "": "",
                "nana": "Nana"
            },
            "sorted": true,
            "resettable": true
        },
        {
            "type": "SimpleSelect",
            "label": "simple-select required",
            "name": "simple-select.required",
            "optiongroup": "SimpleSelect",
            "placeholder": "Select entry...",
            "options": {
                "": "",
                "nana": "Nana"
            },
            "sorted": true,
            "required": true
        },
        {
            "type": "SimpleSelect",
            "label": "simple-select disabled",
            "name": "simple-select.disabled",
            "optiongroup": "SimpleSelect",
            "placeholder": "Select entry...",
            "options": {
                "": "",
                "nana": "Nana"
            },
            "sorted": true,
            "disabled": true
        },
        {
            "type": "SimpleSelect",
            "label": "simple-select readonly",
            "name": "simple-select.readonly",
            "optiongroup": "SimpleSelect",
            "placeholder": "Select entry...",
            "options": {
                "": "",
                "nana": "Nana"
            },
            "value": "nana",
            "sorted": true,
            "readonly": true
        }
    ]
}
