{
    "type": "Fieldset",
    "label": "key value list",
    "children": [
        {
            "type": "KeyValueListInput",
            "label": "key value list default",
            "name": "keyvaluelist.default",
            "sorted": true
        },
        {
            "type": "KeyValueListInput",
            "label": "key value list resettable",
            "name": "keyvaluelist.resettable",
            "sorted": true,
            "resettable": true
        },
        {
            "type": "KeyValueListInput",
            "label": "key value list disabled",
            "name": "keyvaluelist.disabled",
            "sorted": true,
            "disabled": true
        }
    ]
}