{
    "type": "Fieldset",
    "label": "option amount",
    "children": [
        {
            "type": "OptionAmountListInput",
            "label": "option amount default",
            "name": "optionamount.default",
            "optiongroup": "OptionAmountListInput",
            "sorted": true
        },
        {
            "type": "OptionAmountListInput",
            "label": "option amount resettable",
            "name": "optionamount.resettable",
            "optiongroup": "OptionAmountListInput",
            "sorted": true,
            "resettable": true
        },
        {
            "type": "OptionAmountListInput",
            "label": "option amount disabled",
            "name": "optionamount.disabled",
            "optiongroup": "OptionAmountListInput",
            "sorted": true,
            "disabled": true
        }
    ]
}