{
    "type": "Fieldset",
    "label": "switch",
    "children": [
        {
            "type": "SwitchInput",
            "label": "switch default",
            "name": "switch.default"
        },
        {
            "type": "SwitchInput",
            "label": "switch resettable",
            "name": "switch.resettable",
            "resettable": true
        },
        {
            "type": "SwitchInput",
            "label": "switch required",
            "name": "switch.required",
            "required": true
        },
        {
            "type": "SwitchInput",
            "label": "switch disabled",
            "name": "switch.disabled",
            "disabled": true
        }
    ]
}