<?xml version="1.0" encoding="UTF-8" standalone="no"?>
<svg
   xmlns:dc="http://purl.org/dc/elements/1.1/"
   xmlns:cc="http://creativecommons.org/ns#"
   xmlns:rdf="http://www.w3.org/1999/02/22-rdf-syntax-ns#"
   xmlns:svg="http://www.w3.org/2000/svg"
   xmlns="http://www.w3.org/2000/svg"
   xmlns:xlink="http://www.w3.org/1999/xlink"
   xmlns:sodipodi="http://sodipodi.sourceforge.net/DTD/sodipodi-0.dtd"
   xmlns:inkscape="http://www.inkscape.org/namespaces/inkscape"
   width="1000"
   height="1000"
   viewBox="0 0 264.58333 264.58334"
   version="1.1"
   id="svg8"
   inkscape:version="1.0.1 (3bc2e813f5, 2020-09-07)"
   sodipodi:docname="boss_dungeon.svg">
  <defs
     id="defs2">
    <linearGradient
       inkscape:collect="always"
       id="linearGradient843">
      <stop
         style="stop-color:#e81c1a;stop-opacity:1"
         offset="0"
         id="stop839" />
      <stop
         style="stop-color:#000000;stop-opacity:0.95816731"
         offset="1"
         id="stop841" />
    </linearGradient>
    <radialGradient
       inkscape:collect="always"
       xlink:href="#linearGradient843"
       id="radialGradient845"
       cx="95.164528"
       cy="227.20732"
       fx="95.164528"
       fy="227.20732"
       r="74.650299"
       gradientTransform="matrix(1.4911391,0,0,1.6708859,-46.211146,-143.29509)"
       gradientUnits="userSpaceOnUse" />
  </defs>
  <sodipodi:namedview
     id="base"
     pagecolor="#ffffff"
     bordercolor="#666666"
     borderopacity="1.0"
     inkscape:pageopacity="0.0"
     inkscape:pageshadow="2"
     inkscape:zoom="0.35000001"
     inkscape:cx="558.917"
     inkscape:cy="543.30936"
     inkscape:document-units="px"
     inkscape:current-layer="layer1"
     showgrid="false"
     units="px"
     inkscape:window-width="1920"
     inkscape:window-height="1021"
     inkscape:window-x="0"
     inkscape:window-y="0"
     inkscape:window-maximized="1"
     inkscape:snap-bbox="true"
     inkscape:snap-bbox-edge-midpoints="true"
     inkscape:document-rotation="0" />
  <metadata
     id="metadata5">
    <rdf:RDF>
      <cc:Work
         rdf:about="">
        <dc:format>image/svg+xml</dc:format>
        <dc:type
           rdf:resource="http://purl.org/dc/dcmitype/StillImage" />
        <dc:title></dc:title>
      </cc:Work>
    </rdf:RDF>
  </metadata>
  <g
     inkscape:label="Ebene 1"
     inkscape:groupmode="layer"
     id="layer1"
     transform="translate(0,-32.41665)">
    <rect
       style="opacity:1;fill:url(#radialGradient845);fill-opacity:1;fill-rule:nonzero;stroke:none;stroke-width:13.2292;stroke-linecap:round;stroke-linejoin:miter;stroke-miterlimit:4;stroke-dasharray:none;stroke-opacity:1;paint-order:markers stroke fill"
       id="rect837"
       width="149.3006"
       height="182.18451"
       x="59.114182"
       y="88.936569" />
    <path
       style="opacity:1;fill:#dadada;fill-opacity:1;fill-rule:nonzero;stroke:none;stroke-width:11.6475;stroke-linecap:round;stroke-linejoin:miter;stroke-miterlimit:4;stroke-dasharray:none;stroke-opacity:1;paint-order:markers stroke fill"
       d="m 25.383576,90.14016 v 21.61737 H 43.92378 V 238.70097 H 25.383576 v 21.61737 H 95.692407 V 238.70097 H 77.152201 V 111.75753 H 95.692407 V 90.14016 Z m 143.507354,0 v 21.61737 h 18.5402 v 126.94344 h -18.5402 v 21.61737 h 70.30883 v -21.61737 h -18.5402 V 111.75753 h 18.5402 V 90.14016 Z"
       id="rect819"
       inkscape:connector-curvature="0" />
    <rect
       y="39.358959"
       x="43.558193"
       height="32.60688"
       width="177.46695"
       id="rect833"
       style="opacity:1;fill:#c7c7c7;fill-opacity:1;fill-rule:nonzero;stroke:none;stroke-width:11.0522;stroke-linecap:round;stroke-linejoin:miter;stroke-miterlimit:4;stroke-dasharray:none;stroke-opacity:1;paint-order:markers stroke fill" />
    <path
       style="opacity:1;fill:#b5b5b5;fill-opacity:1;fill-rule:nonzero;stroke:none;stroke-width:13.2292;stroke-linecap:round;stroke-linejoin:miter;stroke-miterlimit:4;stroke-dasharray:none;stroke-opacity:1;paint-order:markers stroke fill"
       d="M 7.2096387,61.809595 V 94.950724 H 257.3737 V 61.809595 Z m 0,195.106955 v 33.14113 H 257.3737 v -33.14113 z"
       id="rect830"
       inkscape:connector-curvature="0" />
  </g>
</svg>
